C:\AlphaOne\weather\src\main\java\actions\InValidWeatherActions.java
C:\AlphaOne\weather\src\main\java\constants\Constants.java
C:\AlphaOne\weather\src\main\java\models\Weather.java
C:\AlphaOne\weather\src\main\java\actions\WeatherActions.java
C:\AlphaOne\weather\src\main\java\models\Results.java
C:\AlphaOne\weather\src\main\java\steps\GetWeatherSteps.java
C:\AlphaOne\weather\src\main\java\constants\ErrorCodes.java
C:\AlphaOne\weather\src\main\java\runner\TestRunner.java
